%!PS-Adobe-3.0 EPSF-3.0
%%Creator: gEDA gschem 1.8.1-20121123-13-g875406c
%%CreationDate: Sat Feb  1 10:32:39 2020
%%Title: /home/pietro/Documents/twente/eca2/fir/schematics/a7.sch
%%Author: pietro
%%BoundingBox: 0 0 1224 792
%%Orientation: Portrait
%%Pages: 1
%%EndComments
%%BeginProlog
% Prolog for gEDA, define all the functions needed for rendering
% schematics on Postscript devices


% Draw a line from the second coordinate to the first
% x2 y2 x1 y1 width line -
/line {
    setlinewidth
    % pop off first element and moveto
    moveto
    % pop off remaining elements and draw a line segment
    lineto
    % draw it
    stroke
} bind def


% Draw a dot
% x y r dot -
/dot {
    0 360 arc fill
} bind def

% Draw a dot-dashed line, a bunch of lined segments,
% if the array element only has length two, draw a dot.
% [ [x2 y2 x1 y1] [x4 y4 x3 y3] [x5 y5] ... ] width dashed -
/width 0 def
/dashed {
    dup 2.0 div /width exch def
    setlinewidth
    % pop off each line segment and draw it as a dot or as a line
    {
	aload length 2 gt
	{ moveto lineto stroke}
	{ width dot } ifelse
    } forall
} bind def

% Draw an arc segment
% x y r ang1 ang2 width darc -
/darc {
    setlinewidth
    arc stroke
} bind def

% Draw a series of arc segment bits, if the array element only has a single
% element in it, draw a dot.
% [ [sa1 ea1] [sa2 ea2] ... ] x y r width dashedarc -
/x 0 def
/y 0 def
/dashedarc {
    dup /width exch def
    setlinewidth
    /r exch def  
    /y exch def
    /x exch def
    { aload length 1 gt
	{
	    % this element had two angles in it
	    % extract start and stop angles
	    x y r   % drop x y and r onto stack
		    % at this point we have: sa ea x y r
		    % we need                      x y r sa ea
		    % so..
	    5 -2 roll
	    % and add it to the current path, and draw it
	    arc stroke
	} {
	    % this element only had one angle in it, place a
	    % filled dot at the appropriate place
	    % compute center point of the arc using the angle
	    % that is on the top of the stack
	    dup   		% angle angle
	    cos r mul x add 	% angle x
	    exch		% x angle
	    sin r mul y add	% x y
	    width		% x y width/2
	    dot			% draw the dot
	} ifelse
    } forall

    % Now draw it
    stroke
} bind def

% Draw a box
% width height x y linethickness box -
/box {
    setlinewidth
    moveto
    exch dup 0 rlineto	 % w h, h w w 0      -- Draw bottom line
    exch 0 exch rlineto	 % h w, w h 0, w 0 h -- Draw right line 
    neg 0 rlineto	 % w, -w 0           -- Draw Top line
    closepath		 % finish and draw it
    stroke
} bind def			     

% Draw a filled box
% width height x y fbox -
/fbox {
    moveto
    exch dup 0 rlineto	
    exch 0 exch rlineto	
    neg 0 rlineto		
    closepath			
    fill			
} bind def

% Font reincoding utilities

% ISOLatin1Encoding, extended with remaining uncoded glyphs
/ISOLatin1Extended [
    /.notdef /Lslash /lslash /OE /oe /Scaron /scaron /Zcaron /zcaron
    /Ydieresis /trademark /bullet /dagger /daggerdbl /ellipsis /emdash
    /endash /fi /fl /florin /fraction /guilsinglleft /guilsinglright
    /perthousand /quotedblbase /quotedblleft /quotedblright
    /quotesinglbase /quotesingle /.notdef /.notdef /.notdef /space
    /exclam /quotedbl /numbersign /dollar /percent /ampersand
    /quoteright /parenleft /parenright /asterisk /plus /comma /minus
    /period /slash /zero /one /two /three /four /five /six /seven /eight
    /nine /colon /semicolon /less /equal /greater /question /at /A /B /C
    /D /E /F /G /H /I /J /K /L /M /N /O /P /Q /R /S /T /U /V /W /X /Y /Z
    /bracketleft /backslash /bracketright /asciicircum /underscore
    /quoteleft /a /b /c /d /e /f /g /h /i /j /k /l /m /n /o /p /q /r /s
    /t /u /v /w /x /y /z /braceleft /bar /braceright /asciitilde
    /.notdef /.notdef /.notdef /.notdef /.notdef /.notdef /.notdef
    /.notdef /.notdef /.notdef /.notdef /.notdef /.notdef /.notdef
    /.notdef /.notdef /.notdef /dotlessi /grave /acute /circumflex
    /tilde /macron /breve /dotaccent /dieresis /.notdef /ring /cedilla
    /.notdef /hungarumlaut /ogonek /caron /space /exclamdown /cent
    /sterling /currency /yen /brokenbar /section /dieresis /copyright
    /ordfeminine /guillemotleft /logicalnot /hyphen /registered /macron
    /degree /plusminus /twosuperior /threesuperior /acute /mu /paragraph
    /periodcentered /cedilla /onesuperior /ordmasculine /guillemotright
    /onequarter /onehalf /threequarters /questiondown /Agrave /Aacute
    /Acircumflex /Atilde /Adieresis /Aring /AE /Ccedilla /Egrave /Eacute
    /Ecircumflex /Edieresis /Igrave /Iacute /Icircumflex /Idieresis /Eth
    /Ntilde /Ograve /Oacute /Ocircumflex /Otilde /Odieresis /multiply
    /Oslash /Ugrave /Uacute /Ucircumflex /Udieresis /Yacute /Thorn
    /germandbls /agrave /aacute /acircumflex /atilde /adieresis /aring
    /ae /ccedilla /egrave /eacute /ecircumflex /edieresis /igrave
    /iacute /icircumflex /idieresis /eth /ntilde /ograve /oacute
    /ocircumflex /otilde /odieresis /divide /oslash /ugrave /uacute
    /ucircumflex /udieresis /yacute /thorn /ydieresis
] def

% `new-font-name' `encoding-vector' `old-font-name' RE -
/RE {
    findfont
    dup maxlength dict begin {
        1 index /FID ne { def } { pop pop } ifelse
    } forall
    /Encoding exch def
    dup /FontName exch def
    currentdict end definefont pop
} bind def

% Text handling functions, select the font and scale it, then we need
% only to apply the appropriate transformations to get the text
% justified into the right spots.  The bad thing here is that we don't
% do any kerning, so the output may look a bit strange.

% compute the height of one character and return lly and ury
% (char) charheight lly ury
/charheight {
    gsave			% push graphics state
	newpath			% clear current path
	0 0 moveto		% Set current point
	false charpath		% get path
	flattenpath		% flatten path
	pathbbox		% stack = llx lly urx ury
	exch pop		% stack = llx lly ury
	3 -1 roll pop		% stack = lly ury
    grestore			% pop graphics state
} bind def

% compute the height of a string, one character at a time
% (string) stringheight lly ury
/lly 0.0 def
/ury 0.0 def

/stringheight {
    /lly 0.0 def			% initial value of heightmin
    /ury 0.0 def			% initial value of heightmax
    {				% work through string
	( ) dup 0 4 -1 roll put	% create one character string
	charheight		% measure it's height
	dup ury gt {		% if ury gt heightmax
	    /ury exch def	% update with new value
	} {
	    pop			% else discard ury
	} ifelse
	dup lly lt {		% if lly lt heightmin
	    /lly exch def	% update with new value
	} {
	    pop			% else discard lly
	} ifelse
    } forall
    lly ury			% Return the results
} bind def

% calculate the string width taking into account the escapes.
/mystrx 0.0 def
/mystry 0.0 def
/mystresc false def

/mystringwidth {
    /mystrx 0.0 def
    /mystry 0.0 def
    /mystresc false def
    {				% work through string
	% did we process the escape character last?
	mystresc {
	    % last character was escape
	    % handle the escape
	    % is it an _ = 95?
	    dup 95 eq {
		pop  % we don't need the character anymore
		% toggle drawing overbars
		0.0 0.0 % make it like it never happened...
	    } {
		% otherwise measure the character 
		(\\ ) dup 1 4 -1 roll put % count a \ and the character
		stringwidth
	    } ifelse
	    % and reset the flag
	    /mystresc false def
	} {
	    % last character was not escape
	    % is this escape
	    dup 92 eq {
		% yes, escape character, set flag
		/mystresc true def
		pop % drop character
		0.0 0.0 % make like this character has no width and height
	    } {
		( ) dup 0 4 -1 roll put	% create one character string
		stringwidth		% measure it's height/width
	    } ifelse
	} ifelse
	% accumulate x and y movements
	mystry add /mystry exch def
	mystrx add /mystrx exch def
    } forall
    mystrx mystry % drop results on stack
} bind def

% Render a string with overbars
%
/escaped false def
/drawoverbar false def
/fontsize 0.0 def

%string1 string2 append -
/append {
    2 copy length exch length add % find new length
    string dup % string1 string2 string string
    4 2 roll % string string string1 string2
    2 index 0 3 index
    % string string string1 string2 string 0 string1
    putinterval % string string string1 string2
    exch length exch putinterval
} bind def

% If drawoverbar is set, draw a line of the same length as the given string
% string overbarshowline -
/overbarshowline {
    % print overbar if necessary
    stringwidth pop 0
    drawoverbar {
        rlineto
        gsave stroke grestore
    } {
        rmoveto
    } ifelse
} bind def

% Draws overbars for the given string, then shows the string itself
% string overbarshow
/overbarshow {
    /overbarshowacc () def
    /overbarshowtxt () def

    gsave
    fontsize 10.0 div setlinewidth
    0 fontsize rmoveto  % move to (0,overbarheight)

    {				% work through string
	escaped {
	    % the last character was the escape
	    % handle the escape
	    % is it an _ = 95?
	    dup 95 eq {
		pop  % we don't need the character anymore
                overbarshowacc overbarshowline
                % toggle drawing overbars
		/drawoverbar drawoverbar not def

                % Append the contents off the accumulator to the text
                % string we're eventually going to show
                /overbarshowtxt overbarshowtxt overbarshowacc append def

                % clear accumulator
                /overbarshowacc () def
	    } {
                % add to accumulator
                (\\ ) dup 1 4 -1 roll put
                overbarshowacc exch append
                /overbarshowacc exch def
	    } ifelse
	    % and reset the flag
	    /escaped false def
	} {
	    % check for escape character \ = 92
	    dup 92 eq {
		% yes, escape character, set flag
		/escaped true def
		pop % drop character
	    } {
                % add to accumulator
                ( ) dup 0 4 -1 roll put
                overbarshowacc exch append
                /overbarshowacc exch def
	    } ifelse
	} ifelse
    } forall
    % Catch any leftovers
    overbarshowacc overbarshowline
    overbarshowtxt overbarshowacc append

    grestore
    show
} bind def

% 
% hcenter rjustify vcenter vjustify spacing [(line1) (line2) ... ] rot x y size text -
/stringw 0.0 def
/stringh 0.0 def
/spacing 0.0 def
/strings [ ] def
/stringtxt ( ) def
/stringcount 0 def
/rot 0.0 def

/text {
    gsave	        % save state for later
    /drawoverbar false def      % start by not drawing overbars

    dup /fontsize exch def  % save font size for corrections later
    % do font selection 
    /gEDAFont findfont
    exch scalefont
    setfont

    % set up coordinates
    translate           % move origin to given point
    rotate		% rotate so that text is drawn
    0 0 moveto
    dup length /stringcount exch def			% Get number of strings
    /strings exch def     				% save strings
    /spacing exch def
    % do we have more than 1 string to render?
    stringcount 1 eq {
	/stringtxt strings aload pop def		% get the string 
	/stringw stringtxt mystringwidth pop neg def	% get the -width
	/stringh stringtxt stringheight exch pop neg def% get the -height

	% First do vertical calculations
	% hcenter rjustify vcenter vjustify 
	% vertical justification
	{ 0 stringh rmoveto } if 
	% vertical center
	{ 0 stringh 0.3571425 mul rmoveto } if  % not 0.5, so that
						% it looks nicer
	% Then do horizontal calculations
	% right justify
	{ stringw 0 rmoveto } if
	% center
	{ stringw 2.0 div 0 rmoveto } if
	% Draw the text
	stringtxt overbarshow
    } {
	% More than one line, compute bounding box for the text

	% vertical height, don't use the actual hieght of the characters
	% assume that the user wants to make the baselines line up with two
	% text boxes placed side by side
	/stringh stringcount spacing mul neg def
	% Now figure out horizontal size, this amounts to keeping track
	% of the longest string
	/stringw 0.0 def
	strings {
	    mystringwidth pop
	    dup stringw gt {
		/stringw exch def
	    } {
		pop
	    } ifelse
	} forall
	/stringw stringw neg def 	% get the -width
	
	% First do vertical calculations
	% hcenter rjustify vcenter vjustify 
	% vertical justification
	{ 0 stringh fontsize add rmoveto } if 
	% vertical center
	{ 0 stringh 0.5 mul rmoveto } if 
	% Then do horizontal calculations
	% right justify
	{ stringw 0 rmoveto } if
	% center
	{ stringw 2.0 div 0 rmoveto } if
	% now move up to the first line and begin rendering
	0 stringcount 1 sub spacing mul rmoveto
	strings {
	    gsave		% Save starting point
	    overbarshow		% render the text
	    grestore
	    0 spacing neg rmoveto
	} forall
    } ifelse
    grestore 	% Restore old state
} bind def


%%EndProlog
%%Page: 1 1
/gEDAFont ISOLatin1Extended /Helvetica RE
2 setlinecap
0.072000 0.072000 scale
0 0 translate
1.000000 1.000000 scale
-40000 -40000 translate
gsave
40000 40000 57000 40000 10 line
57000 40000 57000 51000 10 line
57000 51000 40000 51000 10 line
40000 51000 40000 40000 10 line
52900 40600 52900 40000 10 line
gsave
false false false false 161.777776 [(FILE:) ] 0 49500 40400 144.444443 text
grestore
gsave
false false false false 161.777776 [(REVISION:) ] 0 53000 40400 144.444443 text
grestore
gsave
false false false false 161.777776 [(DRAWN BY: ) ] 0 53000 40100 144.444443 text
grestore
gsave
false false false false 161.777776 [(PAGE) ] 0 49500 40100 144.444443 text
grestore
gsave
false false false false 161.777776 [(OF) ] 0 51200 40100 144.444443 text
grestore
gsave
false false false false 161.777776 [(TITLE) ] 0 49500 40700 144.444443 text
grestore
49400 40000 57000 40000 10 line
57000 40000 57000 41400 10 line
57000 41400 49400 41400 10 line
49400 41400 49400 40000 10 line
49400 40600 57000 40600 10 line
grestore
gsave
47000 47300 200 0 360 10 darc
47400 47300 47200 47300 10 line
46600 47300 46800 47300 10 line
47000 46900 47000 47100 10 line
46600 47300 46700 47400 10 line
46600 47300 46700 47200 10 line
grestore
gsave
false false false false 202.222224 [(+) ] 0 46995 47295 180.555557 text
grestore
gsave
49000 47300 200 0 360 10 darc
49400 47300 49200 47300 10 line
48600 47300 48800 47300 10 line
49000 46900 49000 47100 10 line
48600 47300 48700 47400 10 line
48600 47300 48700 47200 10 line
grestore
gsave
false false false false 202.222224 [(+) ] 0 48995 47295 180.555557 text
grestore
gsave
51000 47300 200 0 360 10 darc
51400 47300 51200 47300 10 line
50600 47300 50800 47300 10 line
51000 46900 51000 47100 10 line
50600 47300 50700 47400 10 line
50600 47300 50700 47200 10 line
grestore
gsave
false false false false 202.222224 [(+) ] 0 50995 47295 180.555557 text
grestore
gsave
53000 47300 200 0 360 10 darc
53400 47300 53200 47300 10 line
52600 47300 52800 47300 10 line
53000 46900 53000 47100 10 line
52600 47300 52700 47400 10 line
52600 47300 52700 47200 10 line
grestore
gsave
false false false false 202.222224 [(+) ] 0 52995 47295 180.555557 text
grestore
gsave
gsave
false false false false 161.777776 [(D) () ] 0 53950 47150 144.444443 text
grestore
53600 47300 53800 47300 10 line
54400 47300 54200 47300 10 line
53600 47300 53700 47400 10 line
53600 47300 53700 47200 10 line
53800 47100 54200 47100 10 line
54200 47100 54200 47500 10 line
54200 47500 53800 47500 10 line
53800 47500 53800 47100 10 line
54000 47200 53900 47100 10 line
54000 47200 54100 47100 10 line
grestore
gsave
gsave
false false false false 161.777776 [(D) () ] 0 52050 47150 144.444443 text
grestore
51700 47300 51900 47300 10 line
52500 47300 52300 47300 10 line
51700 47300 51800 47400 10 line
51700 47300 51800 47200 10 line
51900 47100 52300 47100 10 line
52300 47100 52300 47500 10 line
52300 47500 51900 47500 10 line
51900 47500 51900 47100 10 line
52100 47200 52000 47100 10 line
52100 47200 52200 47100 10 line
newpath
52500 47300
25
0 360 arc
fill
newpath
52500 47300
25
0 360 arc
fill
grestore
53400 47300 53600 47300 10 line
52600 47300 52300 47300 10 line
51700 47300 51400 47300 10 line
gsave
45000 44500 44800 44500 10 line
45000 44500 44900 44600 10 line
45000 44500 44900 44400 10 line
44400 44300 44800 44300 10 line
44800 44300 44800 44700 10 line
44800 44700 44400 44700 10 line
44400 44700 44400 44300 10 line
newpath
45000 44500
25
0 360 arc
fill
grestore
gsave
false false false false 202.222224 [(x) ] 0 44500 44500 180.555557 text
grestore
gsave
45000 45200 200 0 360 10 darc
45000 44800 45000 45000 10 line
45000 45600 45000 45400 10 line
45100 45500 45000 45600 10 line
45000 45600 44900 45500 10 line
44600 45200 44800 45200 10 line
grestore
gsave
false true false true 202.222224 [(*) ] 0 45005 45205 180.555557 text
grestore
gsave
47000 45200 200 0 360 10 darc
47000 44800 47000 45000 10 line
47000 45600 47000 45400 10 line
47100 45500 47000 45600 10 line
47000 45600 46900 45500 10 line
46600 45200 46800 45200 10 line
grestore
gsave
false true false true 202.222224 [(*) ] 0 47005 45205 180.555557 text
grestore
gsave
49000 45200 200 0 360 10 darc
49000 44800 49000 45000 10 line
49000 45600 49000 45400 10 line
49100 45500 49000 45600 10 line
49000 45600 48900 45500 10 line
48600 45200 48800 45200 10 line
grestore
gsave
false true false true 202.222224 [(*) ] 0 49005 45205 180.555557 text
grestore
gsave
48500 45200 48300 45200 10 line
48500 45200 48400 45300 10 line
48500 45200 48400 45100 10 line
47900 45000 48300 45000 10 line
48300 45000 48300 45400 10 line
48300 45400 47900 45400 10 line
47900 45400 47900 45000 10 line
grestore
gsave
false false false false 202.222224 [(h2) ] 0 48000 45200 180.555557 text
grestore
gsave
46500 45200 46300 45200 10 line
46500 45200 46400 45300 10 line
46500 45200 46400 45100 10 line
45900 45000 46300 45000 10 line
46300 45000 46300 45400 10 line
46300 45400 45900 45400 10 line
45900 45400 45900 45000 10 line
grestore
gsave
false false false false 202.222224 [(h1) ] 0 46000 45200 180.555557 text
grestore
gsave
44500 45200 44300 45200 10 line
44500 45200 44400 45300 10 line
44500 45200 44400 45100 10 line
43900 45000 44300 45000 10 line
44300 45000 44300 45400 10 line
44300 45400 43900 45400 10 line
43900 45400 43900 45000 10 line
grestore
gsave
false false false false 202.222224 [(h0) ] 0 44000 45200 180.555557 text
grestore
44500 45200 44600 45200 10 line
46600 45200 46500 45200 10 line
48500 45200 48600 45200 10 line
45000 44800 45000 44500 10 line
45000 44500 49000 44500 10 line
49000 44500 49000 44800 10 line
47000 44800 47000 44500 10 line
gsave
gsave
false false false false 161.777776 [(D) () ] 0 49950 47150 144.444443 text
grestore
49600 47300 49800 47300 10 line
50400 47300 50200 47300 10 line
49600 47300 49700 47400 10 line
49600 47300 49700 47200 10 line
49800 47100 50200 47100 10 line
50200 47100 50200 47500 10 line
50200 47500 49800 47500 10 line
49800 47500 49800 47100 10 line
50000 47200 49900 47100 10 line
50000 47200 50100 47100 10 line
grestore
50600 47300 50400 47300 10 line
49400 47300 49600 47300 10 line
gsave
gsave
false false false false 161.777776 [(D) () ] 0 47950 47150 144.444443 text
grestore
47600 47300 47800 47300 10 line
48400 47300 48200 47300 10 line
47600 47300 47700 47400 10 line
47600 47300 47700 47200 10 line
47800 47100 48200 47100 10 line
48200 47100 48200 47500 10 line
48200 47500 47800 47500 10 line
47800 47500 47800 47100 10 line
48000 47200 47900 47100 10 line
48000 47200 48100 47100 10 line
grestore
48600 47300 48400 47300 10 line
47600 47300 47400 47300 10 line
gsave
gsave
false false false false 161.777776 [(D) () ] 0 45950 47150 144.444443 text
grestore
45600 47300 45800 47300 10 line
46400 47300 46200 47300 10 line
45600 47300 45700 47400 10 line
45600 47300 45700 47200 10 line
45800 47100 46200 47100 10 line
46200 47100 46200 47500 10 line
46200 47500 45800 47500 10 line
45800 47500 45800 47100 10 line
46000 47200 45900 47100 10 line
46000 47200 46100 47100 10 line
grestore
46600 47300 46400 47300 10 line
gsave
45000 47300 200 0 360 10 darc
45400 47300 45200 47300 10 line
44600 47300 44800 47300 10 line
45000 46900 45000 47100 10 line
44600 47300 44700 47400 10 line
44600 47300 44700 47200 10 line
grestore
gsave
false false false false 202.222224 [(+) ] 0 44995 47295 180.555557 text
grestore
45600 47300 45400 47300 10 line
gsave
gsave
false false false false 161.777776 [(D) () ] 0 43950 47150 144.444443 text
grestore
43600 47300 43800 47300 10 line
44400 47300 44200 47300 10 line
43600 47300 43700 47400 10 line
43600 47300 43700 47200 10 line
43800 47100 44200 47100 10 line
44200 47100 44200 47500 10 line
44200 47500 43800 47500 10 line
43800 47500 43800 47100 10 line
44000 47200 43900 47100 10 line
44000 47200 44100 47100 10 line
grestore
44400 47300 44600 47300 10 line
gsave
43500 47300 43300 47300 10 line
43300 47300 43400 47200 10 line
43300 47300 43400 47400 10 line
42900 47100 43300 47100 10 line
43300 47100 43300 47500 10 line
43300 47500 42900 47500 10 line
42900 47500 42900 47100 10 line
grestore
gsave
false true false true 202.222224 [(out) ] 0 43200 47300 180.555557 text
grestore
43600 47300 43500 47300 10 line
45000 45600 45000 46900 10 line
47000 46900 47000 45600 10 line
49000 46900 49000 45600 10 line
45000 45900 54400 45900 10 line
54400 45900 54400 47300 10 line
47000 46100 53000 46100 10 line
53000 46100 53000 46900 10 line
49000 46300 51000 46300 10 line
51000 46300 51000 46900 10 line
gsave
false false false false 202.222224 [(BATTISTIG - PENNESTRI') ] 0 54100 40100 180.555557 text
grestore
gsave
false false false false 202.222224 [(1) ] 0 50000 40100 180.555557 text
grestore
gsave
false false false false 202.222224 [(1) ] 0 51600 40100 180.555557 text
grestore
gsave
false false false false 202.222224 [(INVERSE FIR FILTER) () ] 0 50100 40500 180.555557 text
grestore
newpath
52500 47300
25
0 360 arc
fill
newpath
52500 47300
25
0 360 arc
fill
gsave
[ -1.00 -0.00 0.00 -1.00 52300 47300 ] concat
newpath
-30 -30 moveto
-30 30 lineto
30 0 lineto
closepath
fill
grestore
newpath
52500 47300
25
0 360 arc
fill
newpath
45000 44500
25
0 360 arc
fill
newpath
45000 44500
25
0 360 arc
fill
newpath
45000 44500
25
0 360 arc
fill
newpath
47000 44500
25
0 360 arc
fill
newpath
47000 44500
25
0 360 arc
fill
newpath
47000 44500
25
0 360 arc
fill
newpath
45000 45900
25
0 360 arc
fill
newpath
47000 46100
25
0 360 arc
fill
newpath
49000 46300
25
0 360 arc
fill
newpath
45000 45900
25
0 360 arc
fill
newpath
45000 45900
25
0 360 arc
fill
newpath
47000 46100
25
0 360 arc
fill
newpath
47000 46100
25
0 360 arc
fill
newpath
49000 46300
25
0 360 arc
fill
newpath
49000 46300
25
0 360 arc
fill
showpage
%%End
