v 20130925 2
C 40000 40000 0 0 0 title-B.sym
C 46500 46800 1 0 0 nodezip5.sym
{
T 47550 46950 5 10 0 0 0 0 1
device=AOP-Standard
T 47550 47550 5 10 0 0 0 0 1
footprint=DIP8
T 47550 47150 5 10 0 0 0 0 1
symversion=0.1
T 46995 47295 5 10 1 1 0 0 1
value=+
}
C 48500 46800 1 0 0 nodezip5.sym
{
T 49550 46950 5 10 0 0 0 0 1
device=AOP-Standard
T 49550 47550 5 10 0 0 0 0 1
footprint=DIP8
T 49550 47150 5 10 0 0 0 0 1
symversion=0.1
T 48995 47295 5 10 1 1 0 0 1
value=+
}
C 50500 46800 1 0 0 nodezip5.sym
{
T 51550 46950 5 10 0 0 0 0 1
device=AOP-Standard
T 51550 47550 5 10 0 0 0 0 1
footprint=DIP8
T 51550 47150 5 10 0 0 0 0 1
symversion=0.1
T 50995 47295 5 10 1 1 0 0 1
value=+
}
C 52500 46800 1 0 0 nodezip5.sym
{
T 53550 46950 5 10 0 0 0 0 1
device=AOP-Standard
T 53550 47550 5 10 0 0 0 0 1
footprint=DIP8
T 53550 47150 5 10 0 0 0 0 1
symversion=0.1
T 52995 47295 5 10 1 1 0 0 1
value=+
}
C 53500 47000 1 0 0 reg2.sym
{
T 54550 47150 5 10 0 0 0 0 1
device=AOP-Standard
T 54550 47750 5 10 0 0 0 0 1
footprint=DIP8
T 54550 47350 5 10 0 0 0 0 1
symversion=0.1
}
C 51600 47000 1 0 0 reg2.sym
{
T 52650 47150 5 10 0 0 0 0 1
device=AOP-Standard
T 52650 47750 5 10 0 0 0 0 1
footprint=DIP8
T 52650 47350 5 10 0 0 0 0 1
symversion=0.1
}
N 53400 47300 53600 47300 4
N 52600 47300 52300 47300 4
N 51700 47300 51400 47300 4
C 44100 44200 1 0 0 input.sym
{
T 45150 44350 5 10 0 0 0 0 1
device=AOP-Standard
T 45150 44950 5 10 0 0 0 0 1
footprint=DIP8
T 45150 44550 5 10 0 0 0 0 1
symversion=0.1
T 44500 44500 5 10 1 1 0 0 1
value=x
}
C 45300 45700 1 180 0 nodezip2.sym
{
T 44250 45550 5 10 0 0 180 0 1
device=AOP-Standard
T 44250 44950 5 10 0 0 180 0 1
footprint=DIP8
T 44250 45350 5 10 0 0 180 0 1
symversion=0.1
T 45005 45205 5 10 1 1 180 0 1
value=*
}
C 47300 45700 1 180 0 nodezip2.sym
{
T 46250 45550 5 10 0 0 180 0 1
device=AOP-Standard
T 46250 44950 5 10 0 0 180 0 1
footprint=DIP8
T 46250 45350 5 10 0 0 180 0 1
symversion=0.1
T 47005 45205 5 10 1 1 180 0 1
value=*
}
C 49300 45700 1 180 0 nodezip2.sym
{
T 48250 45550 5 10 0 0 180 0 1
device=AOP-Standard
T 48250 44950 5 10 0 0 180 0 1
footprint=DIP8
T 48250 45350 5 10 0 0 180 0 1
symversion=0.1
T 49005 45205 5 10 1 1 180 0 1
value=*
}
C 47600 44900 1 0 0 input.sym
{
T 48650 45050 5 10 0 0 0 0 1
device=AOP-Standard
T 48650 45650 5 10 0 0 0 0 1
footprint=DIP8
T 48650 45250 5 10 0 0 0 0 1
symversion=0.1
T 48000 45200 5 10 1 1 0 0 1
value=h2
}
C 45600 44900 1 0 0 input.sym
{
T 46650 45050 5 10 0 0 0 0 1
device=AOP-Standard
T 46650 45650 5 10 0 0 0 0 1
footprint=DIP8
T 46650 45250 5 10 0 0 0 0 1
symversion=0.1
T 46000 45200 5 10 1 1 0 0 1
value=h1
}
C 43600 44900 1 0 0 input.sym
{
T 44650 45050 5 10 0 0 0 0 1
device=AOP-Standard
T 44650 45650 5 10 0 0 0 0 1
footprint=DIP8
T 44650 45250 5 10 0 0 0 0 1
symversion=0.1
T 44000 45200 5 10 1 1 0 0 1
value=h0
}
N 44500 45200 44600 45200 4
N 46600 45200 46500 45200 4
N 48500 45200 48600 45200 4
N 45000 44800 45000 44500 4
N 45000 44500 49000 44500 4
N 49000 44500 49000 44800 4
N 47000 44800 47000 44500 4
C 49500 47000 1 0 0 reg2.sym
{
T 50550 47150 5 10 0 0 0 0 1
device=AOP-Standard
T 50550 47750 5 10 0 0 0 0 1
footprint=DIP8
T 50550 47350 5 10 0 0 0 0 1
symversion=0.1
}
N 50600 47300 50400 47300 4
N 49400 47300 49600 47300 4
C 47500 47000 1 0 0 reg2.sym
{
T 48550 47150 5 10 0 0 0 0 1
device=AOP-Standard
T 48550 47750 5 10 0 0 0 0 1
footprint=DIP8
T 48550 47350 5 10 0 0 0 0 1
symversion=0.1
}
N 48600 47300 48400 47300 4
N 47600 47300 47400 47300 4
C 45500 47000 1 0 0 reg2.sym
{
T 46550 47150 5 10 0 0 0 0 1
device=AOP-Standard
T 46550 47750 5 10 0 0 0 0 1
footprint=DIP8
T 46550 47350 5 10 0 0 0 0 1
symversion=0.1
}
N 46600 47300 46400 47300 4
C 44500 46800 1 0 0 nodezip5.sym
{
T 45550 46950 5 10 0 0 0 0 1
device=AOP-Standard
T 45550 47550 5 10 0 0 0 0 1
footprint=DIP8
T 45550 47150 5 10 0 0 0 0 1
symversion=0.1
T 44995 47295 5 10 1 1 0 0 1
value=+
}
N 45600 47300 45400 47300 4
C 43500 47000 1 0 0 reg2.sym
{
T 44550 47150 5 10 0 0 0 0 1
device=AOP-Standard
T 44550 47750 5 10 0 0 0 0 1
footprint=DIP8
T 44550 47350 5 10 0 0 0 0 1
symversion=0.1
}
N 44400 47300 44600 47300 4
C 43600 47600 1 180 0 out.sym
{
T 42550 47450 5 10 0 0 180 0 1
device=AOP-Standard
T 42550 46850 5 10 0 0 180 0 1
footprint=DIP8
T 42550 47250 5 10 0 0 180 0 1
symversion=0.1
T 43200 47300 5 10 1 1 180 0 1
value=out
}
N 43600 47300 43500 47300 4
N 45000 45600 45000 46900 4
N 47000 46900 47000 45600 4
N 49000 46900 49000 45600 4
N 45000 45900 54400 45900 4
N 54400 45900 54400 47300 4
N 47000 46100 53000 46100 4
N 53000 46100 53000 46900 4
N 49000 46300 51000 46300 4
N 51000 46300 51000 46900 4
T 54100 40100 9 10 1 0 0 0 1
BATTISTIG - PENNESTRI'
T 50000 40100 9 10 1 0 0 0 1
1
T 51600 40100 9 10 1 0 0 0 1
1
T 50100 40500 9 10 1 0 0 0 2
INVERSE FIR FILTER

