%!PS-Adobe-3.0 EPSF-3.0
%%Creator: gEDA gschem 1.8.1-20121123-13-g875406c
%%CreationDate: Sat Feb  1 17:37:02 2020
%%Title: /home/pietro/Documents/twente/eca2/fir/schematics/a9.sch
%%Author: pietro
%%BoundingBox: 0 0 1224 792
%%Orientation: Portrait
%%Pages: 1
%%EndComments
%%BeginProlog
% Prolog for gEDA, define all the functions needed for rendering
% schematics on Postscript devices


% Draw a line from the second coordinate to the first
% x2 y2 x1 y1 width line -
/line {
    setlinewidth
    % pop off first element and moveto
    moveto
    % pop off remaining elements and draw a line segment
    lineto
    % draw it
    stroke
} bind def


% Draw a dot
% x y r dot -
/dot {
    0 360 arc fill
} bind def

% Draw a dot-dashed line, a bunch of lined segments,
% if the array element only has length two, draw a dot.
% [ [x2 y2 x1 y1] [x4 y4 x3 y3] [x5 y5] ... ] width dashed -
/width 0 def
/dashed {
    dup 2.0 div /width exch def
    setlinewidth
    % pop off each line segment and draw it as a dot or as a line
    {
	aload length 2 gt
	{ moveto lineto stroke}
	{ width dot } ifelse
    } forall
} bind def

% Draw an arc segment
% x y r ang1 ang2 width darc -
/darc {
    setlinewidth
    arc stroke
} bind def

% Draw a series of arc segment bits, if the array element only has a single
% element in it, draw a dot.
% [ [sa1 ea1] [sa2 ea2] ... ] x y r width dashedarc -
/x 0 def
/y 0 def
/dashedarc {
    dup /width exch def
    setlinewidth
    /r exch def  
    /y exch def
    /x exch def
    { aload length 1 gt
	{
	    % this element had two angles in it
	    % extract start and stop angles
	    x y r   % drop x y and r onto stack
		    % at this point we have: sa ea x y r
		    % we need                      x y r sa ea
		    % so..
	    5 -2 roll
	    % and add it to the current path, and draw it
	    arc stroke
	} {
	    % this element only had one angle in it, place a
	    % filled dot at the appropriate place
	    % compute center point of the arc using the angle
	    % that is on the top of the stack
	    dup   		% angle angle
	    cos r mul x add 	% angle x
	    exch		% x angle
	    sin r mul y add	% x y
	    width		% x y width/2
	    dot			% draw the dot
	} ifelse
    } forall

    % Now draw it
    stroke
} bind def

% Draw a box
% width height x y linethickness box -
/box {
    setlinewidth
    moveto
    exch dup 0 rlineto	 % w h, h w w 0      -- Draw bottom line
    exch 0 exch rlineto	 % h w, w h 0, w 0 h -- Draw right line 
    neg 0 rlineto	 % w, -w 0           -- Draw Top line
    closepath		 % finish and draw it
    stroke
} bind def			     

% Draw a filled box
% width height x y fbox -
/fbox {
    moveto
    exch dup 0 rlineto	
    exch 0 exch rlineto	
    neg 0 rlineto		
    closepath			
    fill			
} bind def

% Font reincoding utilities

% ISOLatin1Encoding, extended with remaining uncoded glyphs
/ISOLatin1Extended [
    /.notdef /Lslash /lslash /OE /oe /Scaron /scaron /Zcaron /zcaron
    /Ydieresis /trademark /bullet /dagger /daggerdbl /ellipsis /emdash
    /endash /fi /fl /florin /fraction /guilsinglleft /guilsinglright
    /perthousand /quotedblbase /quotedblleft /quotedblright
    /quotesinglbase /quotesingle /.notdef /.notdef /.notdef /space
    /exclam /quotedbl /numbersign /dollar /percent /ampersand
    /quoteright /parenleft /parenright /asterisk /plus /comma /minus
    /period /slash /zero /one /two /three /four /five /six /seven /eight
    /nine /colon /semicolon /less /equal /greater /question /at /A /B /C
    /D /E /F /G /H /I /J /K /L /M /N /O /P /Q /R /S /T /U /V /W /X /Y /Z
    /bracketleft /backslash /bracketright /asciicircum /underscore
    /quoteleft /a /b /c /d /e /f /g /h /i /j /k /l /m /n /o /p /q /r /s
    /t /u /v /w /x /y /z /braceleft /bar /braceright /asciitilde
    /.notdef /.notdef /.notdef /.notdef /.notdef /.notdef /.notdef
    /.notdef /.notdef /.notdef /.notdef /.notdef /.notdef /.notdef
    /.notdef /.notdef /.notdef /dotlessi /grave /acute /circumflex
    /tilde /macron /breve /dotaccent /dieresis /.notdef /ring /cedilla
    /.notdef /hungarumlaut /ogonek /caron /space /exclamdown /cent
    /sterling /currency /yen /brokenbar /section /dieresis /copyright
    /ordfeminine /guillemotleft /logicalnot /hyphen /registered /macron
    /degree /plusminus /twosuperior /threesuperior /acute /mu /paragraph
    /periodcentered /cedilla /onesuperior /ordmasculine /guillemotright
    /onequarter /onehalf /threequarters /questiondown /Agrave /Aacute
    /Acircumflex /Atilde /Adieresis /Aring /AE /Ccedilla /Egrave /Eacute
    /Ecircumflex /Edieresis /Igrave /Iacute /Icircumflex /Idieresis /Eth
    /Ntilde /Ograve /Oacute /Ocircumflex /Otilde /Odieresis /multiply
    /Oslash /Ugrave /Uacute /Ucircumflex /Udieresis /Yacute /Thorn
    /germandbls /agrave /aacute /acircumflex /atilde /adieresis /aring
    /ae /ccedilla /egrave /eacute /ecircumflex /edieresis /igrave
    /iacute /icircumflex /idieresis /eth /ntilde /ograve /oacute
    /ocircumflex /otilde /odieresis /divide /oslash /ugrave /uacute
    /ucircumflex /udieresis /yacute /thorn /ydieresis
] def

% `new-font-name' `encoding-vector' `old-font-name' RE -
/RE {
    findfont
    dup maxlength dict begin {
        1 index /FID ne { def } { pop pop } ifelse
    } forall
    /Encoding exch def
    dup /FontName exch def
    currentdict end definefont pop
} bind def

% Text handling functions, select the font and scale it, then we need
% only to apply the appropriate transformations to get the text
% justified into the right spots.  The bad thing here is that we don't
% do any kerning, so the output may look a bit strange.

% compute the height of one character and return lly and ury
% (char) charheight lly ury
/charheight {
    gsave			% push graphics state
	newpath			% clear current path
	0 0 moveto		% Set current point
	false charpath		% get path
	flattenpath		% flatten path
	pathbbox		% stack = llx lly urx ury
	exch pop		% stack = llx lly ury
	3 -1 roll pop		% stack = lly ury
    grestore			% pop graphics state
} bind def

% compute the height of a string, one character at a time
% (string) stringheight lly ury
/lly 0.0 def
/ury 0.0 def

/stringheight {
    /lly 0.0 def			% initial value of heightmin
    /ury 0.0 def			% initial value of heightmax
    {				% work through string
	( ) dup 0 4 -1 roll put	% create one character string
	charheight		% measure it's height
	dup ury gt {		% if ury gt heightmax
	    /ury exch def	% update with new value
	} {
	    pop			% else discard ury
	} ifelse
	dup lly lt {		% if lly lt heightmin
	    /lly exch def	% update with new value
	} {
	    pop			% else discard lly
	} ifelse
    } forall
    lly ury			% Return the results
} bind def

% calculate the string width taking into account the escapes.
/mystrx 0.0 def
/mystry 0.0 def
/mystresc false def

/mystringwidth {
    /mystrx 0.0 def
    /mystry 0.0 def
    /mystresc false def
    {				% work through string
	% did we process the escape character last?
	mystresc {
	    % last character was escape
	    % handle the escape
	    % is it an _ = 95?
	    dup 95 eq {
		pop  % we don't need the character anymore
		% toggle drawing overbars
		0.0 0.0 % make it like it never happened...
	    } {
		% otherwise measure the character 
		(\\ ) dup 1 4 -1 roll put % count a \ and the character
		stringwidth
	    } ifelse
	    % and reset the flag
	    /mystresc false def
	} {
	    % last character was not escape
	    % is this escape
	    dup 92 eq {
		% yes, escape character, set flag
		/mystresc true def
		pop % drop character
		0.0 0.0 % make like this character has no width and height
	    } {
		( ) dup 0 4 -1 roll put	% create one character string
		stringwidth		% measure it's height/width
	    } ifelse
	} ifelse
	% accumulate x and y movements
	mystry add /mystry exch def
	mystrx add /mystrx exch def
    } forall
    mystrx mystry % drop results on stack
} bind def

% Render a string with overbars
%
/escaped false def
/drawoverbar false def
/fontsize 0.0 def

%string1 string2 append -
/append {
    2 copy length exch length add % find new length
    string dup % string1 string2 string string
    4 2 roll % string string string1 string2
    2 index 0 3 index
    % string string string1 string2 string 0 string1
    putinterval % string string string1 string2
    exch length exch putinterval
} bind def

% If drawoverbar is set, draw a line of the same length as the given string
% string overbarshowline -
/overbarshowline {
    % print overbar if necessary
    stringwidth pop 0
    drawoverbar {
        rlineto
        gsave stroke grestore
    } {
        rmoveto
    } ifelse
} bind def

% Draws overbars for the given string, then shows the string itself
% string overbarshow
/overbarshow {
    /overbarshowacc () def
    /overbarshowtxt () def

    gsave
    fontsize 10.0 div setlinewidth
    0 fontsize rmoveto  % move to (0,overbarheight)

    {				% work through string
	escaped {
	    % the last character was the escape
	    % handle the escape
	    % is it an _ = 95?
	    dup 95 eq {
		pop  % we don't need the character anymore
                overbarshowacc overbarshowline
                % toggle drawing overbars
		/drawoverbar drawoverbar not def

                % Append the contents off the accumulator to the text
                % string we're eventually going to show
                /overbarshowtxt overbarshowtxt overbarshowacc append def

                % clear accumulator
                /overbarshowacc () def
	    } {
                % add to accumulator
                (\\ ) dup 1 4 -1 roll put
                overbarshowacc exch append
                /overbarshowacc exch def
	    } ifelse
	    % and reset the flag
	    /escaped false def
	} {
	    % check for escape character \ = 92
	    dup 92 eq {
		% yes, escape character, set flag
		/escaped true def
		pop % drop character
	    } {
                % add to accumulator
                ( ) dup 0 4 -1 roll put
                overbarshowacc exch append
                /overbarshowacc exch def
	    } ifelse
	} ifelse
    } forall
    % Catch any leftovers
    overbarshowacc overbarshowline
    overbarshowtxt overbarshowacc append

    grestore
    show
} bind def

% 
% hcenter rjustify vcenter vjustify spacing [(line1) (line2) ... ] rot x y size text -
/stringw 0.0 def
/stringh 0.0 def
/spacing 0.0 def
/strings [ ] def
/stringtxt ( ) def
/stringcount 0 def
/rot 0.0 def

/text {
    gsave	        % save state for later
    /drawoverbar false def      % start by not drawing overbars

    dup /fontsize exch def  % save font size for corrections later
    % do font selection 
    /gEDAFont findfont
    exch scalefont
    setfont

    % set up coordinates
    translate           % move origin to given point
    rotate		% rotate so that text is drawn
    0 0 moveto
    dup length /stringcount exch def			% Get number of strings
    /strings exch def     				% save strings
    /spacing exch def
    % do we have more than 1 string to render?
    stringcount 1 eq {
	/stringtxt strings aload pop def		% get the string 
	/stringw stringtxt mystringwidth pop neg def	% get the -width
	/stringh stringtxt stringheight exch pop neg def% get the -height

	% First do vertical calculations
	% hcenter rjustify vcenter vjustify 
	% vertical justification
	{ 0 stringh rmoveto } if 
	% vertical center
	{ 0 stringh 0.3571425 mul rmoveto } if  % not 0.5, so that
						% it looks nicer
	% Then do horizontal calculations
	% right justify
	{ stringw 0 rmoveto } if
	% center
	{ stringw 2.0 div 0 rmoveto } if
	% Draw the text
	stringtxt overbarshow
    } {
	% More than one line, compute bounding box for the text

	% vertical height, don't use the actual hieght of the characters
	% assume that the user wants to make the baselines line up with two
	% text boxes placed side by side
	/stringh stringcount spacing mul neg def
	% Now figure out horizontal size, this amounts to keeping track
	% of the longest string
	/stringw 0.0 def
	strings {
	    mystringwidth pop
	    dup stringw gt {
		/stringw exch def
	    } {
		pop
	    } ifelse
	} forall
	/stringw stringw neg def 	% get the -width
	
	% First do vertical calculations
	% hcenter rjustify vcenter vjustify 
	% vertical justification
	{ 0 stringh fontsize add rmoveto } if 
	% vertical center
	{ 0 stringh 0.5 mul rmoveto } if 
	% Then do horizontal calculations
	% right justify
	{ stringw 0 rmoveto } if
	% center
	{ stringw 2.0 div 0 rmoveto } if
	% now move up to the first line and begin rendering
	0 stringcount 1 sub spacing mul rmoveto
	strings {
	    gsave		% Save starting point
	    overbarshow		% render the text
	    grestore
	    0 spacing neg rmoveto
	} forall
    } ifelse
    grestore 	% Restore old state
} bind def


%%EndProlog
%%Page: 1 1
/gEDAFont ISOLatin1Extended /Helvetica RE
2 setlinecap
0.072000 0.072000 scale
0 0 translate
1.000000 1.000000 scale
-40000 -40000 translate
gsave
40000 40000 57000 40000 10 line
57000 40000 57000 51000 10 line
57000 51000 40000 51000 10 line
40000 51000 40000 40000 10 line
52900 40600 52900 40000 10 line
gsave
false false false false 161.777776 [(FILE:) ] 0 49500 40400 144.444443 text
grestore
gsave
false false false false 161.777776 [(REVISION:) ] 0 53000 40400 144.444443 text
grestore
gsave
false false false false 161.777776 [(DRAWN BY: ) ] 0 53000 40100 144.444443 text
grestore
gsave
false false false false 161.777776 [(PAGE) ] 0 49500 40100 144.444443 text
grestore
gsave
false false false false 161.777776 [(OF) ] 0 51200 40100 144.444443 text
grestore
gsave
false false false false 161.777776 [(TITLE) ] 0 49500 40700 144.444443 text
grestore
49400 40000 57000 40000 10 line
57000 40000 57000 41400 10 line
57000 41400 49400 41400 10 line
49400 41400 49400 40000 10 line
49400 40600 57000 40600 10 line
grestore
gsave
46900 43600 200 0 360 10 darc
46500 43600 46700 43600 10 line
47300 43600 47100 43600 10 line
47300 43600 47200 43700 10 line
47300 43600 47200 43500 10 line
46700 43600 46600 43700 10 line
46700 43600 46600 43500 10 line
46900 44000 46900 43800 10 line
46800 43900 46900 43800 10 line
46900 43800 47000 43900 10 line
grestore
gsave
false false false false 202.222224 [(+) ] 0 46850 43550 180.555557 text
grestore
gsave
48700 43600 200 0 360 10 darc
48300 43600 48500 43600 10 line
49100 43600 48900 43600 10 line
49100 43600 49000 43700 10 line
49100 43600 49000 43500 10 line
48500 43600 48400 43700 10 line
48500 43600 48400 43500 10 line
48700 44000 48700 43800 10 line
48600 43900 48700 43800 10 line
48700 43800 48800 43900 10 line
grestore
gsave
false false false false 202.222224 [(+) ] 0 48650 43550 180.555557 text
grestore
gsave
45200 47200 200 0 360 10 darc
45200 46800 45200 47000 10 line
45200 47600 45200 47400 10 line
45100 47500 45200 47600 10 line
45200 47600 45300 47500 10 line
44800 47200 45000 47200 10 line
45100 46900 45200 47000 10 line
45200 47000 45300 46900 10 line
45000 47200 44900 47100 10 line
45000 47200 44900 47300 10 line
grestore
gsave
false false false true 202.222224 [(*) ] 0 45195 47205 180.555557 text
grestore
gsave
46900 44900 200 0 360 10 darc
46900 45300 46900 45100 10 line
46900 44500 46900 44700 10 line
46800 44600 46900 44500 10 line
46900 44500 47000 44600 10 line
46500 44900 46700 44900 10 line
46800 45200 46900 45100 10 line
46900 45100 47000 45200 10 line
46700 44900 46600 45000 10 line
46700 44900 46600 44800 10 line
grestore
gsave
false false false false 202.222224 [(*) ] 0 46895 44895 180.555557 text
grestore
gsave
48700 44900 200 0 360 10 darc
48700 45300 48700 45100 10 line
48700 44500 48700 44700 10 line
48600 44600 48700 44500 10 line
48700 44500 48800 44600 10 line
48300 44900 48500 44900 10 line
48600 45200 48700 45100 10 line
48700 45100 48800 45200 10 line
48500 44900 48400 45000 10 line
48500 44900 48400 44800 10 line
grestore
gsave
false false false false 202.222224 [(*) ] 0 48695 44895 180.555557 text
grestore
gsave
44700 44900 44500 44900 10 line
44700 44900 44600 45000 10 line
44700 44900 44600 44800 10 line
44100 44700 44500 44700 10 line
44500 44700 44500 45100 10 line
44500 45100 44100 45100 10 line
44100 45100 44100 44700 10 line
grestore
gsave
false false false false 202.222224 [(A3) ] 0 44200 44900 180.555557 text
grestore
gsave
46400 44900 46200 44900 10 line
46400 44900 46300 45000 10 line
46400 44900 46300 44800 10 line
45800 44700 46200 44700 10 line
46200 44700 46200 45100 10 line
46200 45100 45800 45100 10 line
45800 45100 45800 44700 10 line
grestore
gsave
false false false false 202.222224 [(A2) ] 0 45900 44900 180.555557 text
grestore
gsave
48200 44900 48000 44900 10 line
48200 44900 48100 45000 10 line
48200 44900 48100 44800 10 line
47600 44700 48000 44700 10 line
48000 44700 48000 45100 10 line
48000 45100 47600 45100 10 line
47600 45100 47600 44700 10 line
grestore
gsave
false false false false 202.222224 [(A1) ] 0 47700 44900 180.555557 text
grestore
45600 46000 45200 46000 10 line
46900 44500 46900 44000 10 line
48700 44500 48700 44000 10 line
46400 44900 46500 44900 10 line
48200 44900 48300 44900 10 line
45200 43600 46500 43600 10 line
47300 43600 48300 43600 10 line
47400 46000 46400 46000 10 line
49300 46000 48200 46000 10 line
46900 45300 46900 46000 10 line
48700 45300 48700 46000 10 line
gsave
44800 47200 44600 47200 10 line
44800 47200 44700 47300 10 line
44800 47200 44700 47100 10 line
44200 47000 44600 47000 10 line
44600 47000 44600 47400 10 line
44600 47400 44200 47400 10 line
44200 47400 44200 47000 10 line
grestore
gsave
false false false false 202.222224 [(B3) ] 0 44300 47200 180.555557 text
grestore
gsave
gsave
false false false false 161.777776 [(D) () ] 0 45950 45850 144.444443 text
grestore
45600 46000 45800 46000 10 line
46400 46000 46200 46000 10 line
45600 46000 45700 46100 10 line
45600 46000 45700 45900 10 line
45800 45800 46200 45800 10 line
46200 45800 46200 46200 10 line
46200 46200 45800 46200 10 line
45800 46200 45800 45800 10 line
46000 45900 45900 45800 10 line
46000 45900 46100 45800 10 line
46200 46000 46300 46100 10 line
46200 46000 46300 45900 10 line
grestore
gsave
47400 46000 47600 46000 10 line
48200 46000 48000 46000 10 line
47400 46000 47500 46100 10 line
47400 46000 47500 45900 10 line
47600 45800 48000 45800 10 line
48000 45800 48000 46200 10 line
48000 46200 47600 46200 10 line
47600 46200 47600 45800 10 line
47800 45900 47700 45800 10 line
47800 45900 47900 45800 10 line
48000 46000 48100 46100 10 line
48000 46000 48100 45900 10 line
gsave
false false false false 161.777776 [(D) () ] 0 47750 45850 144.444443 text
grestore
grestore
gsave
49300 46000 49500 46000 10 line
50100 46000 49900 46000 10 line
49300 46000 49400 46100 10 line
49300 46000 49400 45900 10 line
49500 45800 49900 45800 10 line
49900 45800 49900 46200 10 line
49900 46200 49500 46200 10 line
49500 46200 49500 45800 10 line
49700 45900 49600 45800 10 line
49700 45900 49800 45800 10 line
49900 46000 50000 46100 10 line
49900 46000 50000 45900 10 line
gsave
false false false false 161.777776 [(D) () ] 0 49650 45850 144.444443 text
grestore
grestore
gsave
46900 47200 200 0 360 10 darc
46900 46800 46900 47000 10 line
46900 47600 46900 47400 10 line
46800 47500 46900 47600 10 line
46900 47600 47000 47500 10 line
46500 47200 46700 47200 10 line
46800 46900 46900 47000 10 line
46900 47000 47000 46900 10 line
46700 47200 46600 47100 10 line
46700 47200 46600 47300 10 line
grestore
gsave
false false false true 202.222224 [(*) ] 0 46895 47205 180.555557 text
grestore
46900 46800 46900 46000 10 line
gsave
46500 47200 46300 47200 10 line
46500 47200 46400 47300 10 line
46500 47200 46400 47100 10 line
45900 47000 46300 47000 10 line
46300 47000 46300 47400 10 line
46300 47400 45900 47400 10 line
45900 47400 45900 47000 10 line
grestore
gsave
false false false false 202.222224 [(B2) ] 0 46000 47200 180.555557 text
grestore
gsave
48700 47200 200 0 360 10 darc
48700 46800 48700 47000 10 line
48700 47600 48700 47400 10 line
48600 47500 48700 47600 10 line
48700 47600 48800 47500 10 line
48300 47200 48500 47200 10 line
48600 46900 48700 47000 10 line
48700 47000 48800 46900 10 line
48500 47200 48400 47100 10 line
48500 47200 48400 47300 10 line
grestore
gsave
48300 47200 48100 47200 10 line
48300 47200 48200 47300 10 line
48300 47200 48200 47100 10 line
47700 47000 48100 47000 10 line
48100 47000 48100 47400 10 line
48100 47400 47700 47400 10 line
47700 47400 47700 47000 10 line
grestore
gsave
false false false true 202.222224 [(*) ] 0 48695 47205 180.555557 text
grestore
gsave
false false false false 202.222224 [(B1) ] 0 47800 47200 180.555557 text
grestore
48700 46800 48700 46000 10 line
gsave
50900 46000 200 0 360 10 darc
51300 46000 51100 46000 10 line
50500 46000 50700 46000 10 line
50900 45600 50900 45800 10 line
50500 46000 50600 46100 10 line
50500 46000 50600 45900 10 line
grestore
gsave
false false false false 202.222224 [(+) ] 0 50895 45995 180.555557 text
grestore
gsave
45200 44900 200 0 360 10 darc
45200 45300 45200 45100 10 line
45200 44500 45200 44700 10 line
45100 44600 45200 44500 10 line
45200 44500 45300 44600 10 line
44800 44900 45000 44900 10 line
45100 45200 45200 45100 10 line
45200 45100 45300 45200 10 line
45000 44900 44900 45000 10 line
45000 44900 44900 44800 10 line
grestore
gsave
false false false false 202.222224 [(*) ] 0 45195 44895 180.555557 text
grestore
45200 44500 45200 43600 10 line
44700 44900 44800 44900 10 line
45200 45300 45200 46800 10 line
50500 46000 50100 46000 10 line
49100 43600 50900 43600 10 line
50900 43600 50900 45600 10 line
gsave
50300 47200 200 0 360 10 darc
50300 46800 50300 47000 10 line
50300 47600 50300 47400 10 line
50200 47500 50300 47600 10 line
50300 47600 50400 47500 10 line
49900 47200 50100 47200 10 line
50200 46900 50300 47000 10 line
50300 47000 50400 46900 10 line
50100 47200 50000 47100 10 line
50100 47200 50000 47300 10 line
grestore
gsave
false false false true 202.222224 [(*) ] 0 50295 47205 180.555557 text
grestore
50300 46800 50300 46000 10 line
gsave
49900 47200 49700 47200 10 line
49900 47200 49800 47300 10 line
49900 47200 49800 47100 10 line
49300 47000 49700 47000 10 line
49700 47000 49700 47400 10 line
49700 47400 49300 47400 10 line
49300 47400 49300 47000 10 line
grestore
gsave
false false false false 202.222224 [(B0) ] 0 49400 47200 180.555557 text
grestore
gsave
false false false false 202.222224 [(S2) () () ] 0 49500 45900 180.555557 text
grestore
gsave
false false false false 202.222224 [(S1) () () () ] 0 47600 45700 180.555557 text
grestore
gsave
false false false false 202.222224 [(S0) () () () ] 0 45800 45700 180.555557 text
grestore
gsave
45200 48500 200 0 360 10 darc
45600 48500 45400 48500 10 line
44800 48500 45000 48500 10 line
44900 48400 44800 48500 10 line
44800 48500 44900 48600 10 line
45200 48100 45200 48300 10 line
45500 48400 45400 48500 10 line
45400 48500 45500 48600 10 line
45200 48300 45300 48200 10 line
45200 48300 45100 48200 10 line
grestore
gsave
false true false false 202.222224 [(+) ] 270 45195 48495 180.555557 text
grestore
gsave
46900 48500 200 0 360 10 darc
47300 48500 47100 48500 10 line
46500 48500 46700 48500 10 line
46600 48400 46500 48500 10 line
46500 48500 46600 48600 10 line
46900 48100 46900 48300 10 line
47200 48400 47100 48500 10 line
47100 48500 47200 48600 10 line
46900 48300 47000 48200 10 line
46900 48300 46800 48200 10 line
grestore
gsave
false true false false 202.222224 [(+) ] 270 46895 48495 180.555557 text
grestore
gsave
48700 48500 200 0 360 10 darc
49100 48500 48900 48500 10 line
48300 48500 48500 48500 10 line
48400 48400 48300 48500 10 line
48300 48500 48400 48600 10 line
48700 48100 48700 48300 10 line
49000 48400 48900 48500 10 line
48900 48500 49000 48600 10 line
48700 48300 48800 48200 10 line
48700 48300 48600 48200 10 line
grestore
gsave
false true false false 202.222224 [(+) ] 270 48695 48495 180.555557 text
grestore
45600 48500 46500 48500 10 line
47300 48500 48300 48500 10 line
49100 48500 50300 48500 10 line
50300 47600 50300 48500 10 line
45200 48100 45200 47600 10 line
46900 48100 46900 47600 10 line
48700 48100 48700 47600 10 line
gsave
44800 48500 44600 48500 10 line
44600 48500 44700 48400 10 line
44600 48500 44700 48600 10 line
44200 48300 44600 48300 10 line
44600 48300 44600 48700 10 line
44600 48700 44200 48700 10 line
44200 48700 44200 48300 10 line
grestore
gsave
false true false true 202.222224 [(OUT) ] 0 44500 48500 180.555557 text
grestore
gsave
51300 46000 51500 46000 10 line
51300 46000 51400 45900 10 line
51300 46000 51400 46100 10 line
51500 45800 51900 45800 10 line
51900 45800 51900 46200 10 line
51900 46200 51500 46200 10 line
51500 46200 51500 45800 10 line
grestore
gsave
false true false true 202.222224 [(IN) ] 0 51800 46000 180.555557 text
grestore
newpath
45200 46000
25
0 360 arc
fill
newpath
45200 46000
25
0 360 arc
fill
newpath
46900 46000
25
0 360 arc
fill
newpath
46900 46000
25
0 360 arc
fill
newpath
48700 46000
25
0 360 arc
fill
newpath
48700 46000
25
0 360 arc
fill
newpath
46900 46000
25
0 360 arc
fill
newpath
46900 46000
25
0 360 arc
fill
newpath
48700 46000
25
0 360 arc
fill
newpath
48700 46000
25
0 360 arc
fill
newpath
46900 46000
25
0 360 arc
fill
newpath
46900 46000
25
0 360 arc
fill
newpath
48700 46000
25
0 360 arc
fill
newpath
48700 46000
25
0 360 arc
fill
newpath
45200 46000
25
0 360 arc
fill
newpath
50300 46000
25
0 360 arc
fill
newpath
50300 46000
25
0 360 arc
fill
newpath
50300 46000
25
0 360 arc
fill
showpage
%%End
