v 20130925 2
C 40000 40000 0 0 0 title-B.sym
C 46400 43300 1 0 0 nodeFold.sym
{
T 47450 43450 5 10 0 0 0 0 1
device=AOP-Standard
T 47450 44050 5 10 0 0 0 0 1
footprint=DIP8
T 47450 43650 5 10 0 0 0 0 1
symversion=0.1
T 46850 43550 5 10 1 1 0 0 1
value=+
}
C 48200 43300 1 0 0 nodeFold.sym
{
T 49250 43450 5 10 0 0 0 0 1
device=AOP-Standard
T 49250 44050 5 10 0 0 0 0 1
footprint=DIP8
T 49250 43650 5 10 0 0 0 0 1
symversion=0.1
T 48650 43550 5 10 1 1 0 0 1
value=+
}
C 44700 47700 1 180 1 nodezip3.sym
{
T 45750 47550 5 10 0 0 180 6 1
device=AOP-Standard
T 45750 46950 5 10 0 0 180 6 1
footprint=DIP8
T 45750 47350 5 10 0 0 180 6 1
symversion=0.1
T 45195 47205 5 10 1 1 180 6 1
value=*
}
C 46400 44400 1 0 0 nodezip3.sym
{
T 47450 44550 5 10 0 0 0 0 1
device=AOP-Standard
T 47450 45150 5 10 0 0 0 0 1
footprint=DIP8
T 47450 44750 5 10 0 0 0 0 1
symversion=0.1
T 46895 44895 5 10 1 1 0 0 1
value=*
}
C 48200 44400 1 0 0 nodezip3.sym
{
T 49250 44550 5 10 0 0 0 0 1
device=AOP-Standard
T 49250 45150 5 10 0 0 0 0 1
footprint=DIP8
T 49250 44750 5 10 0 0 0 0 1
symversion=0.1
T 48695 44895 5 10 1 1 0 0 1
value=*
}
C 43800 44600 1 0 0 input.sym
{
T 44850 44750 5 10 0 0 0 0 1
device=AOP-Standard
T 44850 45350 5 10 0 0 0 0 1
footprint=DIP8
T 44850 44950 5 10 0 0 0 0 1
symversion=0.1
T 44200 44900 5 10 1 1 0 0 1
value=A3
}
C 45500 44600 1 0 0 input.sym
{
T 46550 44750 5 10 0 0 0 0 1
device=AOP-Standard
T 46550 45350 5 10 0 0 0 0 1
footprint=DIP8
T 46550 44950 5 10 0 0 0 0 1
symversion=0.1
T 45900 44900 5 10 1 1 0 0 1
value=A2
}
C 47300 44600 1 0 0 input.sym
{
T 48350 44750 5 10 0 0 0 0 1
device=AOP-Standard
T 48350 45350 5 10 0 0 0 0 1
footprint=DIP8
T 48350 44950 5 10 0 0 0 0 1
symversion=0.1
T 47700 44900 5 10 1 1 0 0 1
value=A1
}
N 45600 46000 45200 46000 4
N 46900 44500 46900 44000 4
N 48700 44500 48700 44000 4
N 46400 44900 46500 44900 4
N 48200 44900 48300 44900 4
N 45200 43600 46500 43600 4
N 47300 43600 48300 43600 4
N 47400 46000 46400 46000 4
N 49300 46000 48200 46000 4
N 46900 45300 46900 46000 4
N 48700 45300 48700 46000 4
C 43900 46900 1 0 0 input.sym
{
T 44950 47050 5 10 0 0 0 0 1
device=AOP-Standard
T 44950 47650 5 10 0 0 0 0 1
footprint=DIP8
T 44950 47250 5 10 0 0 0 0 1
symversion=0.1
T 44300 47200 5 10 1 1 0 0 1
value=B3
}
C 45500 45700 1 0 0 reg2.sym
{
T 46550 45850 5 10 0 0 0 0 1
device=AOP-Standard
T 46550 46450 5 10 0 0 0 0 1
footprint=DIP8
T 46550 46050 5 10 0 0 0 0 1
symversion=0.1
}
C 47300 45700 1 0 0 reg2.sym
{
T 48350 45850 5 10 0 0 0 0 1
device=AOP-Standard
T 48350 46450 5 10 0 0 0 0 1
footprint=DIP8
T 48350 46050 5 10 0 0 0 0 1
symversion=0.1
}
C 49200 45700 1 0 0 reg2.sym
{
T 50250 45850 5 10 0 0 0 0 1
device=AOP-Standard
T 50250 46450 5 10 0 0 0 0 1
footprint=DIP8
T 50250 46050 5 10 0 0 0 0 1
symversion=0.1
}
C 46400 47700 1 180 1 nodezip3.sym
{
T 47450 47550 5 10 0 0 180 6 1
device=AOP-Standard
T 47450 46950 5 10 0 0 180 6 1
footprint=DIP8
T 47450 47350 5 10 0 0 180 6 1
symversion=0.1
T 46895 47205 5 10 1 1 180 6 1
value=*
}
N 46900 46800 46900 46000 4
C 45600 46900 1 0 0 input.sym
{
T 46650 47050 5 10 0 0 0 0 1
device=AOP-Standard
T 46650 47650 5 10 0 0 0 0 1
footprint=DIP8
T 46650 47250 5 10 0 0 0 0 1
symversion=0.1
T 46000 47200 5 10 1 1 0 0 1
value=B2
}
C 48200 47700 1 180 1 nodezip3.sym
{
T 49250 47550 5 10 0 0 180 6 1
device=AOP-Standard
T 49250 46950 5 10 0 0 180 6 1
footprint=DIP8
T 49250 47350 5 10 0 0 180 6 1
symversion=0.1
T 48695 47205 5 10 1 1 180 6 1
value=*
}
C 47400 46900 1 0 0 input.sym
{
T 48450 47050 5 10 0 0 0 0 1
device=AOP-Standard
T 48450 47650 5 10 0 0 0 0 1
footprint=DIP8
T 48450 47250 5 10 0 0 0 0 1
symversion=0.1
T 47800 47200 5 10 1 1 0 0 1
value=B1
}
N 48700 46800 48700 46000 4
C 50400 45500 1 0 0 nodezip5.sym
{
T 51450 45650 5 10 0 0 0 0 1
device=AOP-Standard
T 51450 46250 5 10 0 0 0 0 1
footprint=DIP8
T 51450 45850 5 10 0 0 0 0 1
symversion=0.1
T 50895 45995 5 10 1 1 0 0 1
value=+
}
C 44700 44400 1 0 0 nodezip3.sym
{
T 45750 44550 5 10 0 0 0 0 1
device=AOP-Standard
T 45750 45150 5 10 0 0 0 0 1
footprint=DIP8
T 45750 44750 5 10 0 0 0 0 1
symversion=0.1
T 45195 44895 5 10 1 1 0 0 1
value=*
}
N 45200 44500 45200 43600 4
N 44700 44900 44800 44900 4
N 45200 45300 45200 46800 4
N 50500 46000 50100 46000 4
N 49100 43600 50900 43600 4
N 50900 43600 50900 45600 4
C 49800 47700 1 180 1 nodezip3.sym
{
T 50850 47550 5 10 0 0 180 6 1
device=AOP-Standard
T 50850 46950 5 10 0 0 180 6 1
footprint=DIP8
T 50850 47350 5 10 0 0 180 6 1
symversion=0.1
T 50295 47205 5 10 1 1 180 6 1
value=*
}
N 50300 46800 50300 46000 4
C 49000 46900 1 0 0 input.sym
{
T 50050 47050 5 10 0 0 0 0 1
device=AOP-Standard
T 50050 47650 5 10 0 0 0 0 1
footprint=DIP8
T 50050 47250 5 10 0 0 0 0 1
symversion=0.1
T 49400 47200 5 10 1 1 0 0 1
value=B0
}
T 49500 45900 9 10 1 0 0 0 3
S2


T 47600 45700 9 10 1 0 0 0 4
S1



T 45800 45700 9 10 1 0 0 0 4
S0



C 44700 48000 1 270 1 nodezip3.sym
{
T 44850 49050 5 10 0 0 270 6 1
device=AOP-Standard
T 45450 49050 5 10 0 0 270 6 1
footprint=DIP8
T 45050 49050 5 10 0 0 270 6 1
symversion=0.1
T 45195 48495 5 10 1 1 270 6 1
value=+
}
C 46400 48000 1 270 1 nodezip3.sym
{
T 46550 49050 5 10 0 0 270 6 1
device=AOP-Standard
T 47150 49050 5 10 0 0 270 6 1
footprint=DIP8
T 46750 49050 5 10 0 0 270 6 1
symversion=0.1
T 46895 48495 5 10 1 1 270 6 1
value=+
}
C 48200 48000 1 270 1 nodezip3.sym
{
T 48350 49050 5 10 0 0 270 6 1
device=AOP-Standard
T 48950 49050 5 10 0 0 270 6 1
footprint=DIP8
T 48550 49050 5 10 0 0 270 6 1
symversion=0.1
T 48695 48495 5 10 1 1 270 6 1
value=+
}
N 45600 48500 46500 48500 4
N 47300 48500 48300 48500 4
N 49100 48500 50300 48500 4
N 50300 47600 50300 48500 4
N 45200 48100 45200 47600 4
N 46900 48100 46900 47600 4
N 48700 48100 48700 47600 4
C 44900 48800 1 180 0 out.sym
{
T 43850 48650 5 10 0 0 180 0 1
device=AOP-Standard
T 43850 48050 5 10 0 0 180 0 1
footprint=DIP8
T 43850 48450 5 10 0 0 180 0 1
symversion=0.1
T 44500 48500 5 10 1 1 180 0 1
value=OUT
}
C 52200 46300 1 180 0 input.sym
{
T 51150 46150 5 10 0 0 180 0 1
device=AOP-Standard
T 51150 45550 5 10 0 0 180 0 1
footprint=DIP8
T 51150 45950 5 10 0 0 180 0 1
symversion=0.1
T 51800 46000 5 10 1 1 180 0 1
value=IN
}
