{
	"partitions" : [
		{
			"name" : "Top",
			"pins" : [
				{
					"name" : "result_0_0[0]",
					"strict" : false
				},
				{
					"name" : "result_0_0[1]",
					"strict" : false
				},
				{
					"name" : "result_0_0[2]",
					"strict" : false
				},
				{
					"name" : "result_0_0[3]",
					"strict" : false
				},
				{
					"name" : "result_0_0[4]",
					"strict" : false
				},
				{
					"name" : "result_0_0[5]",
					"strict" : false
				},
				{
					"name" : "result_0_0[6]",
					"strict" : false
				},
				{
					"name" : "result_0_0[7]",
					"strict" : false
				},
				{
					"name" : "result_0_1[0]",
					"strict" : false
				},
				{
					"name" : "result_0_1[1]",
					"strict" : false
				},
				{
					"name" : "result_0_1[2]",
					"strict" : false
				},
				{
					"name" : "result_0_1[3]",
					"strict" : false
				},
				{
					"name" : "result_0_1[4]",
					"strict" : false
				},
				{
					"name" : "result_0_1[5]",
					"strict" : false
				},
				{
					"name" : "result_0_1[6]",
					"strict" : false
				},
				{
					"name" : "result_0_1[7]",
					"strict" : false
				},
				{
					"name" : "result_0_2[0]",
					"strict" : false
				},
				{
					"name" : "result_0_2[1]",
					"strict" : false
				},
				{
					"name" : "result_0_2[2]",
					"strict" : false
				},
				{
					"name" : "result_0_2[3]",
					"strict" : false
				},
				{
					"name" : "result_0_2[4]",
					"strict" : false
				},
				{
					"name" : "result_0_2[5]",
					"strict" : false
				},
				{
					"name" : "result_0_2[6]",
					"strict" : false
				},
				{
					"name" : "result_0_2[7]",
					"strict" : false
				},
				{
					"name" : "result_0_3[0]",
					"strict" : false
				},
				{
					"name" : "result_0_3[1]",
					"strict" : false
				},
				{
					"name" : "result_0_3[2]",
					"strict" : false
				},
				{
					"name" : "result_0_3[3]",
					"strict" : false
				},
				{
					"name" : "result_0_3[4]",
					"strict" : false
				},
				{
					"name" : "result_0_3[5]",
					"strict" : false
				},
				{
					"name" : "result_0_3[6]",
					"strict" : false
				},
				{
					"name" : "result_0_3[7]",
					"strict" : false
				},
				{
					"name" : "result_0_4[0]",
					"strict" : false
				},
				{
					"name" : "result_0_4[1]",
					"strict" : false
				},
				{
					"name" : "result_0_4[2]",
					"strict" : false
				},
				{
					"name" : "result_0_4[3]",
					"strict" : false
				},
				{
					"name" : "result_0_4[4]",
					"strict" : false
				},
				{
					"name" : "result_0_4[5]",
					"strict" : false
				},
				{
					"name" : "result_0_4[6]",
					"strict" : false
				},
				{
					"name" : "result_0_4[7]",
					"strict" : false
				},
				{
					"name" : "result_0_5[0]",
					"strict" : false
				},
				{
					"name" : "result_0_5[1]",
					"strict" : false
				},
				{
					"name" : "result_0_5[2]",
					"strict" : false
				},
				{
					"name" : "result_0_5[3]",
					"strict" : false
				},
				{
					"name" : "result_0_5[4]",
					"strict" : false
				},
				{
					"name" : "result_0_5[5]",
					"strict" : false
				},
				{
					"name" : "result_0_5[6]",
					"strict" : false
				},
				{
					"name" : "result_0_5[7]",
					"strict" : false
				},
				{
					"name" : "result_1[0]",
					"strict" : false
				},
				{
					"name" : "result_1[1]",
					"strict" : false
				},
				{
					"name" : "result_1[2]",
					"strict" : false
				},
				{
					"name" : "result_1[3]",
					"strict" : false
				},
				{
					"name" : "result_1[4]",
					"strict" : false
				},
				{
					"name" : "result_1[5]",
					"strict" : false
				},
				{
					"name" : "result_1[6]",
					"strict" : false
				},
				{
					"name" : "result_1[7]",
					"strict" : false
				},
				{
					"name" : "c$arg_6[0]",
					"strict" : false
				},
				{
					"name" : "c$arg_6[1]",
					"strict" : false
				},
				{
					"name" : "c$arg_6[2]",
					"strict" : false
				},
				{
					"name" : "c$arg_6[3]",
					"strict" : false
				},
				{
					"name" : "c$arg_6[4]",
					"strict" : false
				},
				{
					"name" : "c$arg_6[5]",
					"strict" : false
				},
				{
					"name" : "c$arg_6[6]",
					"strict" : false
				},
				{
					"name" : "c$arg_6[7]",
					"strict" : false
				},
				{
					"name" : "c$arg_0[0]",
					"strict" : false
				},
				{
					"name" : "c$arg_0[1]",
					"strict" : false
				},
				{
					"name" : "c$arg_0[2]",
					"strict" : false
				},
				{
					"name" : "c$arg_0[3]",
					"strict" : false
				},
				{
					"name" : "c$arg_0[4]",
					"strict" : false
				},
				{
					"name" : "c$arg_0[5]",
					"strict" : false
				},
				{
					"name" : "c$arg_0[6]",
					"strict" : false
				},
				{
					"name" : "c$arg_0[7]",
					"strict" : false
				},
				{
					"name" : "c$arg_1[0]",
					"strict" : false
				},
				{
					"name" : "c$arg_1[1]",
					"strict" : false
				},
				{
					"name" : "c$arg_1[2]",
					"strict" : false
				},
				{
					"name" : "c$arg_1[3]",
					"strict" : false
				},
				{
					"name" : "c$arg_1[4]",
					"strict" : false
				},
				{
					"name" : "c$arg_1[5]",
					"strict" : false
				},
				{
					"name" : "c$arg_1[6]",
					"strict" : false
				},
				{
					"name" : "c$arg_1[7]",
					"strict" : false
				},
				{
					"name" : "c$arg_2[0]",
					"strict" : false
				},
				{
					"name" : "c$arg_2[1]",
					"strict" : false
				},
				{
					"name" : "c$arg_2[2]",
					"strict" : false
				},
				{
					"name" : "c$arg_2[3]",
					"strict" : false
				},
				{
					"name" : "c$arg_2[4]",
					"strict" : false
				},
				{
					"name" : "c$arg_2[5]",
					"strict" : false
				},
				{
					"name" : "c$arg_2[6]",
					"strict" : false
				},
				{
					"name" : "c$arg_2[7]",
					"strict" : false
				},
				{
					"name" : "c$arg_3[0]",
					"strict" : false
				},
				{
					"name" : "c$arg_3[1]",
					"strict" : false
				},
				{
					"name" : "c$arg_3[2]",
					"strict" : false
				},
				{
					"name" : "c$arg_3[3]",
					"strict" : false
				},
				{
					"name" : "c$arg_3[4]",
					"strict" : false
				},
				{
					"name" : "c$arg_3[5]",
					"strict" : false
				},
				{
					"name" : "c$arg_3[6]",
					"strict" : false
				},
				{
					"name" : "c$arg_3[7]",
					"strict" : false
				},
				{
					"name" : "c$arg_4[0]",
					"strict" : false
				},
				{
					"name" : "c$arg_4[1]",
					"strict" : false
				},
				{
					"name" : "c$arg_4[2]",
					"strict" : false
				},
				{
					"name" : "c$arg_4[3]",
					"strict" : false
				},
				{
					"name" : "c$arg_4[4]",
					"strict" : false
				},
				{
					"name" : "c$arg_4[5]",
					"strict" : false
				},
				{
					"name" : "c$arg_4[6]",
					"strict" : false
				},
				{
					"name" : "c$arg_4[7]",
					"strict" : false
				},
				{
					"name" : "c$arg_5[0]",
					"strict" : false
				},
				{
					"name" : "c$arg_5[1]",
					"strict" : false
				},
				{
					"name" : "c$arg_5[2]",
					"strict" : false
				},
				{
					"name" : "c$arg_5[3]",
					"strict" : false
				},
				{
					"name" : "c$arg_5[4]",
					"strict" : false
				},
				{
					"name" : "c$arg_5[5]",
					"strict" : false
				},
				{
					"name" : "c$arg_5[6]",
					"strict" : false
				},
				{
					"name" : "c$arg_5[7]",
					"strict" : false
				}
			]
		}
	]
}